%YAML 1.1
%TAG !u! tag:unity3d.com,2011:
--- !u!1 &8617866802130430905
GameObject:
  m_ObjectHideFlags: 0
  m_CorrespondingSourceObject: {fileID: 0}
  m_PrefabInstance: {fileID: 0}
  m_PrefabAsset: {fileID: 0}
  serializedVersion: 6
  m_Component:
  - component: {fileID: 3533917789769766283}
  - component: {fileID: 3242978127203989782}
  - component: {fileID: 5785699091742436452}
  m_Layer: 0
  m_Name: orange
  m_TagString: PickupsH
  m_Icon: {fileID: 0}
  m_NavMeshLayer: 0
  m_StaticEditorFlags: 0
  m_IsActive: 1
--- !u!4 &3533917789769766283
Transform:
  m_ObjectHideFlags: 0
  m_CorrespondingSourceObject: {fileID: 0}
  m_PrefabInstance: {fileID: 0}
  m_PrefabAsset: {fileID: 0}
  m_GameObject: {fileID: 8617866802130430905}
  m_LocalRotation: {x: 0, y: 0.38268343, z: 0, w: 0.92387956}
  m_LocalPosition: {x: 0, y: 0, z: 0}
  m_LocalScale: {x: 1, y: 1, z: 1}
  m_Children:
  - {fileID: 9171302334915584217}
  m_Father: {fileID: 0}
  m_RootOrder: 0
  m_LocalEulerAnglesHint: {x: 0, y: 45, z: 0}
--- !u!135 &3242978127203989782
SphereCollider:
  m_ObjectHideFlags: 0
  m_CorrespondingSourceObject: {fileID: 0}
  m_PrefabInstance: {fileID: 0}
  m_PrefabAsset: {fileID: 0}
  m_GameObject: {fileID: 8617866802130430905}
  m_Material: {fileID: 0}
  m_IsTrigger: 1
  m_Enabled: 1
  serializedVersion: 2
  m_Radius: 0.5
  m_Center: {x: 0, y: 0, z: 0}
--- !u!114 &5785699091742436452
MonoBehaviour:
  m_ObjectHideFlags: 0
  m_CorrespondingSourceObject: {fileID: 0}
  m_PrefabInstance: {fileID: 0}
  m_PrefabAsset: {fileID: 0}
  m_GameObject: {fileID: 8617866802130430905}
  m_Enabled: 1
  m_EditorHideFlags: 0
  m_Script: {fileID: 11500000, guid: af5d9f2724ea84fd9996ec0b0e52da3e, type: 3}
  m_Name: 
  m_EditorClassIdentifier: 
--- !u!1001 &9171302334915721817
PrefabInstance:
  m_ObjectHideFlags: 0
  serializedVersion: 2
  m_Modification:
    m_TransformParent: {fileID: 3533917789769766283}
    m_Modifications:
    - target: {fileID: 100000, guid: f889d6e3d71e9c54eaf07783b7e5348c, type: 3}
      propertyPath: m_Name
      value: orange
      objectReference: {fileID: 0}
    - target: {fileID: 400000, guid: f889d6e3d71e9c54eaf07783b7e5348c, type: 3}
      propertyPath: m_LocalPosition.x
      value: 0
      objectReference: {fileID: 0}
    - target: {fileID: 400000, guid: f889d6e3d71e9c54eaf07783b7e5348c, type: 3}
      propertyPath: m_LocalPosition.y
      value: 0
      objectReference: {fileID: 0}
    - target: {fileID: 400000, guid: f889d6e3d71e9c54eaf07783b7e5348c, type: 3}
      propertyPath: m_LocalPosition.z
      value: 0
      objectReference: {fileID: 0}
    - target: {fileID: 400000, guid: f889d6e3d71e9c54eaf07783b7e5348c, type: 3}
      propertyPath: m_LocalRotation.x
      value: 0
      objectReference: {fileID: 0}
    - target: {fileID: 400000, guid: f889d6e3d71e9c54eaf07783b7e5348c, type: 3}
      propertyPath: m_LocalRotation.y
      value: 0
      objectReference: {fileID: 0}
    - target: {fileID: 400000, guid: f889d6e3d71e9c54eaf07783b7e5348c, type: 3}
      propertyPath: m_LocalRotation.z
      value: 0
      objectReference: {fileID: 0}
    - target: {fileID: 400000, guid: f889d6e3d71e9c54eaf07783b7e5348c, type: 3}
      propertyPath: m_LocalRotation.w
      value: 1
      objectReference: {fileID: 0}
    - target: {fileID: 400000, guid: f889d6e3d71e9c54eaf07783b7e5348c, type: 3}
      propertyPath: m_RootOrder
      value: 0
      objectReference: {fileID: 0}
    - target: {fileID: 400000, guid: f889d6e3d71e9c54eaf07783b7e5348c, type: 3}
      propertyPath: m_LocalEulerAnglesHint.x
      value: 0
      objectReference: {fileID: 0}
    - target: {fileID: 400000, guid: f889d6e3d71e9c54eaf07783b7e5348c, type: 3}
      propertyPath: m_LocalEulerAnglesHint.y
      value: 0
      objectReference: {fileID: 0}
    - target: {fileID: 400000, guid: f889d6e3d71e9c54eaf07783b7e5348c, type: 3}
      propertyPath: m_LocalEulerAnglesHint.z
      value: 0
      objectReference: {fileID: 0}
    m_RemovedComponents: []
  m_SourcePrefab: {fileID: 100100000, guid: f889d6e3d71e9c54eaf07783b7e5348c, type: 3}
--- !u!4 &9171302334915584217 stripped
Transform:
  m_CorrespondingSourceObject: {fileID: 400000, guid: f889d6e3d71e9c54eaf07783b7e5348c,
    type: 3}
  m_PrefabInstance: {fileID: 9171302334915721817}
  m_PrefabAsset: {fileID: 0}
