%YAML 1.1
%TAG !u! tag:unity3d.com,2011:
--- !u!1 &7285802358678737791
GameObject:
  m_ObjectHideFlags: 0
  m_CorrespondingSourceObject: {fileID: 0}
  m_PrefabInstance: {fileID: 0}
  m_PrefabAsset: {fileID: 0}
  serializedVersion: 6
  m_Component:
  - component: {fileID: 6587854954318284542}
  - component: {fileID: 5232858250062384797}
  - component: {fileID: 4555391323501393642}
  m_Layer: 0
  m_Name: pizza
  m_TagString: PickupsH
  m_Icon: {fileID: 0}
  m_NavMeshLayer: 0
  m_StaticEditorFlags: 0
  m_IsActive: 1
--- !u!4 &6587854954318284542
Transform:
  m_ObjectHideFlags: 0
  m_CorrespondingSourceObject: {fileID: 0}
  m_PrefabInstance: {fileID: 0}
  m_PrefabAsset: {fileID: 0}
  m_GameObject: {fileID: 7285802358678737791}
  m_LocalRotation: {x: 0, y: 0.38268343, z: 0, w: 0.92387956}
  m_LocalPosition: {x: 0, y: 0, z: 0}
  m_LocalScale: {x: 1, y: 1, z: 1}
  m_Children:
  - {fileID: 1562540710471650472}
  m_Father: {fileID: 0}
  m_RootOrder: 0
  m_LocalEulerAnglesHint: {x: 0, y: 45, z: 0}
--- !u!135 &5232858250062384797
SphereCollider:
  m_ObjectHideFlags: 0
  m_CorrespondingSourceObject: {fileID: 0}
  m_PrefabInstance: {fileID: 0}
  m_PrefabAsset: {fileID: 0}
  m_GameObject: {fileID: 7285802358678737791}
  m_Material: {fileID: 0}
  m_IsTrigger: 1
  m_Enabled: 1
  serializedVersion: 2
  m_Radius: 0.5
  m_Center: {x: 0, y: 0, z: 0}
--- !u!114 &4555391323501393642
MonoBehaviour:
  m_ObjectHideFlags: 0
  m_CorrespondingSourceObject: {fileID: 0}
  m_PrefabInstance: {fileID: 0}
  m_PrefabAsset: {fileID: 0}
  m_GameObject: {fileID: 7285802358678737791}
  m_Enabled: 1
  m_EditorHideFlags: 0
  m_Script: {fileID: 11500000, guid: af5d9f2724ea84fd9996ec0b0e52da3e, type: 3}
  m_Name: 
  m_EditorClassIdentifier: 
--- !u!1001 &1562540710471259688
PrefabInstance:
  m_ObjectHideFlags: 0
  serializedVersion: 2
  m_Modification:
    m_TransformParent: {fileID: 6587854954318284542}
    m_Modifications:
    - target: {fileID: 100000, guid: d3a88e33be12ed34b832c0be1f56a7a9, type: 3}
      propertyPath: m_Name
      value: pizza
      objectReference: {fileID: 0}
    - target: {fileID: 400000, guid: d3a88e33be12ed34b832c0be1f56a7a9, type: 3}
      propertyPath: m_LocalPosition.x
      value: 0
      objectReference: {fileID: 0}
    - target: {fileID: 400000, guid: d3a88e33be12ed34b832c0be1f56a7a9, type: 3}
      propertyPath: m_LocalPosition.y
      value: 0
      objectReference: {fileID: 0}
    - target: {fileID: 400000, guid: d3a88e33be12ed34b832c0be1f56a7a9, type: 3}
      propertyPath: m_LocalPosition.z
      value: 0
      objectReference: {fileID: 0}
    - target: {fileID: 400000, guid: d3a88e33be12ed34b832c0be1f56a7a9, type: 3}
      propertyPath: m_LocalRotation.x
      value: 0
      objectReference: {fileID: 0}
    - target: {fileID: 400000, guid: d3a88e33be12ed34b832c0be1f56a7a9, type: 3}
      propertyPath: m_LocalRotation.y
      value: 0
      objectReference: {fileID: 0}
    - target: {fileID: 400000, guid: d3a88e33be12ed34b832c0be1f56a7a9, type: 3}
      propertyPath: m_LocalRotation.z
      value: 0
      objectReference: {fileID: 0}
    - target: {fileID: 400000, guid: d3a88e33be12ed34b832c0be1f56a7a9, type: 3}
      propertyPath: m_LocalRotation.w
      value: 1
      objectReference: {fileID: 0}
    - target: {fileID: 400000, guid: d3a88e33be12ed34b832c0be1f56a7a9, type: 3}
      propertyPath: m_RootOrder
      value: 0
      objectReference: {fileID: 0}
    - target: {fileID: 400000, guid: d3a88e33be12ed34b832c0be1f56a7a9, type: 3}
      propertyPath: m_LocalEulerAnglesHint.x
      value: 0
      objectReference: {fileID: 0}
    - target: {fileID: 400000, guid: d3a88e33be12ed34b832c0be1f56a7a9, type: 3}
      propertyPath: m_LocalEulerAnglesHint.y
      value: 0
      objectReference: {fileID: 0}
    - target: {fileID: 400000, guid: d3a88e33be12ed34b832c0be1f56a7a9, type: 3}
      propertyPath: m_LocalEulerAnglesHint.z
      value: 0
      objectReference: {fileID: 0}
    m_RemovedComponents: []
  m_SourcePrefab: {fileID: 100100000, guid: d3a88e33be12ed34b832c0be1f56a7a9, type: 3}
--- !u!4 &1562540710471650472 stripped
Transform:
  m_CorrespondingSourceObject: {fileID: 400000, guid: d3a88e33be12ed34b832c0be1f56a7a9,
    type: 3}
  m_PrefabInstance: {fileID: 1562540710471259688}
  m_PrefabAsset: {fileID: 0}
